tezt/_regressions/encoding/ithaca.period.out

./tezos-codec encode 012-PsiThaCa.period from '"2789"'
0000000000000ae5

./tezos-codec decode 012-PsiThaCa.period from 0000000000000ae5
"2789"

./tezos-codec encode 012-PsiThaCa.period from '"0"'
0000000000000000

./tezos-codec decode 012-PsiThaCa.period from 0000000000000000
"0"
