tezt/_regressions/encoding/ithaca.cycle.out

./tezos-codec encode 012-PsiThaCa.cycle from 2147483647
7fffffff

./tezos-codec decode 012-PsiThaCa.cycle from 7fffffff
2147483647

./tezos-codec encode 012-PsiThaCa.cycle from 0
00000000

./tezos-codec decode 012-PsiThaCa.cycle from 00000000
0
