tezt/_regressions/encoding/ithaca.raw_level.out

./tezos-codec encode 012-PsiThaCa.raw_level from 2147483647
7fffffff

./tezos-codec decode 012-PsiThaCa.raw_level from 7fffffff
2147483647

./tezos-codec encode 012-PsiThaCa.raw_level from 0
00000000

./tezos-codec decode 012-PsiThaCa.raw_level from 00000000
0
