tezt/_regressions/encoding/ithaca.timestamp.out

./tezos-codec encode 012-PsiThaCa.timestamp from '"2020-04-20T16:19:59Z"'
000000005e9dcbaf

./tezos-codec decode 012-PsiThaCa.timestamp from 000000005e9dcbaf
"2020-04-20T16:19:59Z"
