tezt/_regressions/encoding/ithaca.level.out

./tezos-codec encode 012-PsiThaCa.level from '{
  "level": 1331,
  "level_position": 2147483647,
  "cycle": 300,
  "cycle_position": 600,
  "expected_commitment": true
}'
000005337fffffff0000012c00000258ff

./tezos-codec decode 012-PsiThaCa.level from 000005337fffffff0000012c00000258ff
{ "level": 1331, "level_position": 2147483647, "cycle": 300,
  "cycle_position": 600, "expected_commitment": true }
